Chronic Absenteeism in Colorado School Districts
…
Examination of unvariates

There are 3 numeric fields that need to be reviewed: chronically_absent_rate, absentee_students, and total_students. All of these fields should have positive values. The first, chronically_absent_rate should range between 0 and 1. In addition to these numeric fields, the school_districts need to be examined to ensure that all datasets include the same 178 school districts. Additionally, each dataset should contain 178 observations for the same school year.

Verify counties

df_master |> 
  distinct(county_name)

# A tibble: 63 × 1
   county_name
   <chr>      
 1 ADAMS      
 2 ALAMOSA    
 3 ARAPAHOE   
 4 ARCHULETA  
 5 BACA       
 6 BENT       
 7 BOULDER    
 8 CHAFFEE    
 9 CHEYENNE   
10 CLEAR CREEK
# ℹ 53 more rows

There are 63 counties present. This is good. There are 64 counties in the state, but Broomfield county is missing because it does not have any school districts of its own. It is served by existing districts.

The names are in call caps, for aesthetics, these will be converted to proper case.

df_master <- df_master |> 
  mutate(
    county_name = str_to_title(county_name)
  )

df_master |> 
  distinct(county_name)

# A tibble: 63 × 1
   county_name
   <chr>      
 1 Adams      
 2 Alamosa    
 3 Arapahoe   
 4 Archuleta  
 5 Baca       
 6 Bent       
 7 Boulder    
 8 Chaffee    
 9 Cheyenne   
10 Clear Creek
# ℹ 53 more rows
…
district_name_count <- df_master |>
  distinct(district_name) |> 
  count() |> 
  pull()

district_name_count

[1] 361

We have an issue with the district_name field, however. There are 361 distinct values rather 178. We need to investigate the field to see if it is possible to normalise the district_name field.

df_master |>
  distinct(district_name)

# A tibble: 361 × 1
   district_name             
   <chr>                     
 1 MAPLETON 1                
 2 ADAMS 12 FIVE STAR SCHOOLS
 3 ADAMS COUNTY 14           
 4 SCHOOL DISTRICT 27J       
 5 BENNETT 29J               
 6 STRASBURG 31J             
 7 WESTMINSTER PUBLIC SCHOOLS
 8 ALAMOSA RE-11J            
 9 SANGRE DE CRISTO RE-22J   
10 ENGLEWOOD 1               
# ℹ 351 more rows
…
